…
``` r
homicides_clean%>%
  group_by(city_state)%>%
    summarize(
      total=n())
```

    ## # A tibble: 46 × 2
    ##    city_state      total
    ##    <chr>           <int>
    ##  1 Albuquerque, NM   178
    ##  2 Atlanta, GA       945
    ##  3 Baltimore, MD    2753
    ##  4 Baton Rouge, LA   410
    ##  5 Birmingham, AL    771
    ##  6 Boston, MA        492
    ##  7 Buffalo, NY       479
    ##  8 Charlotte, NC     584
    ##  9 Chicago, IL      4507
    ## 10 Cincinnati, OH    679
    ## # … with 36 more rows
…
homicides_fit
```

    ## # A tibble: 46 × 4
    ##    city_state         OR OR_conf_low OR_conf_high
    ##    <chr>           <dbl>       <dbl>        <dbl>
    ##  1 Albuquerque, NM 1.77        0.831        3.76 
    ##  2 Atlanta, GA     1.00        0.684        1.46 
    ##  3 Baltimore, MD   0.426       0.325        0.558
    ##  4 Baton Rouge, LA 0.381       0.209        0.695
    ##  5 Birmingham, AL  0.870       0.574        1.32 
    ##  6 Boston, MA      0.674       0.356        1.28 
    ##  7 Buffalo, NY     0.521       0.290        0.935
    ##  8 Charlotte, NC   0.884       0.557        1.40 
    ##  9 Chicago, IL     0.410       0.336        0.501
    ## 10 Cincinnati, OH  0.400       0.236        0.677
    ## # … with 36 more rows
…
